Assignments
…
The data set has data for 200 police departments in one year. In order to answer the question of interest, more analysis has to be done because the linear regression model is insufficient to make a prediction in this case. In terms of data ethics, it is concerning that police departments have control over what gets reported. For instance, they could under report the incidences of police brutality in order to make themselves look better. This means that the data may not be truly representative of this situation. Models can often reinforce biases if the models are based on biased data. This could be an issue in this case because the police have control over how many instances of brutality get reported.The results could be reflecting lower levels of brutality than are actually present, which affects our interpretation of the relationship between funding and brutality. 

Assignment 4

###Chapter 3: Data Visualization

#install.packages("tidyverse")
library(tidyverse)

#these two lines downlaoded and installed the tidyverse package that is necessary for the following lines of code to work. 

mpg

## # A tibble: 234 × 11
##    manufacturer model      displ  year   cyl trans drv     cty   hwy fl    class
##    <chr>        <chr>      <dbl> <int> <int> <chr> <chr> <int> <int> <chr> <chr>
##  1 audi         a4           1.8  1999     4 auto… f        18    29 p     comp…
##  2 audi         a4           1.8  1999     4 manu… f        21    29 p     comp…
##  3 audi         a4           2    2008     4 manu… f        20    31 p     comp…
##  4 audi         a4           2    2008     4 auto… f        21    30 p     comp…
##  5 audi         a4           2.8  1999     6 auto… f        16    26 p     comp…
##  6 audi         a4           2.8  1999     6 manu… f        18    26 p     comp…
##  7 audi         a4           3.1  2008     6 auto… f        18    27 p     comp…
##  8 audi         a4 quattro   1.8  1999     4 manu… 4        18    26 p     comp…
##  9 audi         a4 quattro   1.8  1999     4 auto… 4        16    25 p     comp…
## 10 audi         a4 quattro   2    2008     4 manu… 4        20    28 p     comp…
## # … with 224 more rows
…
